module github.com/Anas-Elgarhy

go 1.18

require (
	github.com/Anas-Elgarhy/JCmusIntegrationWithDiscord v1.1.0 // indirect
	github.com/Anas-Elgarhy/dwm v0.0.0-20220519083658-f84ab69cee14 // indirect
	github.com/Anas-Elgarhy/slstatus v0.0.0-20220501211816-a3fb8788206d // indirect
	github.com/alacritty/alacritty v0.10.1 // indirect
	github.com/cmus/cmus v2.9.1+incompatible // indirect
	github.com/drkhsh/slstatus v0.0.0-20201130203214-84a2f117a32f // indirect
	github.com/garbeam/dwm v0.0.0-20190202125042-cb3f58ad0699 // indirect
	github.com/git/git v2.36.1+incompatible // indirect
	github.com/golang/go v0.0.0-20220519071347-128279e5034c // indirect
	github.com/jetBrains/kotlin v1.6.21 // indirect
	github.com/neovim/neovim v0.7.0 // indirect
	github.com/rust-lang/rust v0.0.0-20220519040440-50872bdb99c9 // indirect
	github.com/tmux/tmux v0.0.0-20220514191646-ead75c2d512c // indirect
	github.com/zsh-users/zsh v0.0.0-20220520215050-a54d70457934 // indirect
)
